<?xml version="1.0" encoding="utf-8"?>
<!-- Generator: Adobe Illustrator 18.0.0, SVG Export Plug-In . SVG Version: 6.00 Build 0)  -->
<!DOCTYPE svg PUBLIC "-//W3C//DTD SVG 1.1//EN" "http://www.w3.org/Graphics/SVG/1.1/DTD/svg11.dtd">
<svg version="1.1" id="звезды" xmlns="http://www.w3.org/2000/svg" xmlns:xlink="http://www.w3.org/1999/xlink" x="0px"
	 y="0px" viewBox="0 0 128 19" enable-background="new 0 0 128 19" xml:space="preserve">
<path fill="#FFFFFF" d="M4,0v18h120V0H4z M21.9,7.5l-4.4,3.8l1.3,5.6c0.1,0.4-0.3,0.7-0.7,0.5l-5-3l-5,3c-0.3,0.2-0.8-0.1-0.7-0.5
	l1.3-5.6L4.5,7.5C4.2,7.3,4.4,6.8,4.8,6.7l5.8-0.5l2.3-5.3c0.2-0.4,0.7-0.4,0.8,0l2.3,5.3l5.8,0.5C22,6.8,22.2,7.3,21.9,7.5z
	 M47.2,7.5l-4.4,3.8l1.3,5.6c0.1,0.4-0.3,0.7-0.7,0.5l-5-3l-5,3c-0.3,0.2-0.8-0.1-0.7-0.5l1.3-5.6l-4.4-3.8
	c-0.3-0.3-0.1-0.8,0.3-0.8l5.8-0.5l2.3-5.3c0.2-0.4,0.7-0.4,0.8,0l2.3,5.3L47,6.7C47.4,6.8,47.5,7.3,47.2,7.5z M72.6,7.5l-4.4,3.8
	l1.3,5.6c0.1,0.4-0.3,0.7-0.7,0.5l-5-3l-5,3c-0.3,0.2-0.8-0.1-0.7-0.5l1.3-5.6l-4.4-3.8c-0.3-0.3-0.1-0.8,0.3-0.8l5.8-0.5l2.3-5.3
	c0.2-0.4,0.7-0.4,0.8,0l2.3,5.3l5.8,0.5C72.7,6.8,72.9,7.3,72.6,7.5z M97.9,7.5l-4.4,3.8l1.3,5.6c0.1,0.4-0.3,0.7-0.7,0.5l-5-3l-5,3
	c-0.3,0.2-0.8-0.1-0.7-0.5l1.3-5.6l-4.4-3.8c-0.3-0.3-0.1-0.8,0.3-0.8l5.8-0.5l2.3-5.3c0.2-0.4,0.7-0.4,0.8,0l2.3,5.3l5.8,0.5
	C98.1,6.8,98.2,7.3,97.9,7.5z M123.3,7.5l-4.4,3.8l1.3,5.6c0.1,0.4-0.3,0.7-0.7,0.5l-5-3l-5,3c-0.3,0.2-0.8-0.1-0.7-0.5l1.3-5.6
	l-4.4-3.8c-0.3-0.3-0.1-0.8,0.3-0.8l5.8-0.5l2.3-5.3c0.2-0.4,0.7-0.4,0.8,0l2.3,5.3l5.8,0.5C123.4,6.8,123.6,7.3,123.3,7.5z M4,18H0
	V0h4V18z M128,18h-4V0h4V18z"/>
</svg>
